Einkaufsgewohnheiten in den USA
…
Es werden mehr Winter als Sommerklamotten gekauft.

In dieser These wird die Hypothese geprüft, dass im Winter mehr Kleidung gekauft wird als im Sommer.

4.7 These 7:

Die meisten Klamotten werden im Norden gekauft.

Zunächst schauen wir uns einmal alle vorhandenen Orte an:

Code

shopping_behavior |> distinct(Location)

# A tibble: 50 × 1
   Location     
   <chr>        
 1 Kentucky     
 2 Maine        
 3 Massachusetts
 4 Rhode Island 
 5 Oregon       
 6 Wyoming      
 7 Montana      
 8 Louisiana    
 9 West Virginia
10 Missouri     
# ℹ 40 more rows
…
