Einkaufsgewohnheiten in den USA
…
Es werden mehr Winter als Sommerklamotten gekauft.

In dieser These wird die Hypothese geprüft, dass im Winter mehr Kleidung gekauft wird als im Sommer.

4.7 These 7:

Die meisten Klamotten werden im Norden gekauft.

Zunächst schauen wir uns einmal alle vorhandenen Orte an:

Code

shopping_behavior |> distinct(Location)

# A tibble: 50 × 1
   Location     
   <chr>        
 1 Kentucky     
 2 Maine        
 3 Massachusetts
 4 Rhode Island 
 5 Oregon       
 6 Wyoming      
 7 Montana      
 8 Louisiana    
 9 West Virginia
10 Missouri     
# ℹ 40 more rows
…
Wir analysieren die Daten mit Hilfe von lineare Regression. Wir wollen vorhersagen, wie viele Einkäufe es in den einzelnen Altersgruppen geben wird. Dafür erstellen wir ein Modell.

Daten gruppieren und Zusammenzählen

Code

# Daten gruppieren und die Anzahl der Einkäufe pro Altersgruppe zusammenzählen
purchase_count_by_age <- shopping_behavior %>%
  group_by(Age) %>%
  summarize(Total_Purchases = n())

print(purchase_count_by_age)

# A tibble: 53 × 2
     Age Total_Purchases
   <dbl>           <int>
 1    18              69
 2    19              81
 3    20              62
 4    21              69
 5    22              66
 6    23              71
 7    24              68
 8    25              85
 9    26              69
10    27              83
# ℹ 43 more rows
…
